p8105_hw3_yl4613 codes
…
Problem 1

data("instacart")

This dataset contains 1384617 and 15 columns.

Observations are the level of items in order by user. There are user / order variables  user ID, order ID, order day, and order hour. There are also item variables  name, aisle, department, and some numeric codes.

How many aisles, and which are most items from?

instacart %>% 
    count(aisle) %>% 
    arrange(desc(n))

## # A tibble: 134 x 2
##    aisle                              n
##    <chr>                          <int>
##  1 fresh vegetables              150609
##  2 fresh fruits                  150473
##  3 packaged vegetables fruits     78493
##  4 yogurt                         55240
##  5 packaged cheese                41699
##  6 water seltzer sparkling water  36617
##  7 milk                           32644
##  8 chips pretzels                 31269
##  9 soy lactosefree                26240
## 10 bread                          23635
## #  with 124 more rows
…
    mutate(
        prcp_mm = prcp / 10,
        snow_mm = as.numeric(snow),
        snwd_mm = as.numeric(snwd),
        tmax = as.numeric(tmax),
        tmax_C = tmax / 10,
        tmin = as.numeric(tmin),
        tmin_C = tmin / 10
        ) %>% 
    select(-'prcp', -'snow', -'snwd', -'tmax', -'tmin')
ny %>% 
    count(snow_mm) %>% 
    arrange(desc(n))

## # A tibble: 282 x 2
##    snow_mm       n
##      <dbl>   <int>
##  1       0 2008508
##  2      NA  381221
##  3      25   31022
##  4      13   23095
##  5      51   18274
##  6      76   10173
##  7       8    9962
##  8       5    9748
##  9      38    9197
## 10       3    8790
## #  with 272 more rows
…
